Extract a character column in an ir object into multiple columns using regular expression groups — extract.ir • ir
…
    Examples

## extract
ir_sample_data |>
  tidyr::extract(
    id_sample,  "a"
  )
#> # A tibble: 58 × 7
#>    id_measurement a     sample_type sample_comment   klason_lignin holocellulose
#>             <int> <chr> <chr>       <chr>            <units>       <units>      
#>  1              1 GN    needles     Abies Firma Mom… 0.359944      0.3084       
#>  2              2 GN    needles     Cupressocyparis… 0.339405      0.2497       
#>  3              3 GN    needles     Juniperus chine… 0.267552      0.3362       
#>  4              4 GN    needles     Metasequoia gly… 0.350016      0.1844       
#>  5              5 GN    needles     Pinus strobus T… 0.331100      0.3092       
#>  6              6 GN    needles     Pseudolarix ama… 0.279360      0.3355       
#>  7              7 GN    needles     Sequoia semperv… 0.329672      0.2408       
#>  8              8 GN    needles     Taxodium distic… 0.356950      0.1253       
#>  9              9 GN    needles     Thuja occidenta… 0.369360      0.2517       
#> 10             10 GN    needles     Tsuga carolinia… 0.289050      0.3487       
#> # ℹ 48 more rows
#> # ℹ 1 more variable: spectra <named list>
…
