Filtering joins for an ir object — filter-joins • ir
…
## anti_join
set.seed(234)
dplyr::anti_join(
  ir_sample_data,
  tibble::tibble(
    id_measurement = c(1:5, 101:105),
    nitrogen_content = rbeta(n = 10, 0.2, 0.1)
  ),
  by = "id_measurement"
)
#> # A tibble: 53 × 7
#>    id_measurement id_sample sample_type sample_comment             klason_lignin
#>  *          <int> <chr>     <chr>       <chr>                      <units>      
#>  1              6 GN 11-419 needles     Pseudolarix amabili Golde… 0.279360     
#>  2              7 GN 11-422 needles     Sequoia sempervirens Cali… 0.329672     
#>  3              8 GN 11-423 needles     Taxodium distichum Cascad… 0.356950     
#>  4              9 GN 11-428 needles     Thuja occidentalis Easter… 0.369360     
#>  5             10 GN 11-434 needles     Tsuga caroliniana Carolin… 0.289050     
#>  6             11 GN 11-435 needles     Picea abies Norway Spruce  0.288000     
#>  7             12 GN 11-460 needles     Pinus taeda Loblolly pine  0.322300     
#>  8             13 HW 07-151 hardwood    Quercus sp. Red oak (from… 0.238095     
#>  9             14 HW 11-137 hardwood    Acer saccharum Sugar maple 0.242592     
#> 10             15 HW 11-144 hardwood    Fraxinus americana White … 0.259224     
#> # ℹ 43 more rows
#> # ℹ 2 more variables: holocellulose <units>, spectra <named list>
…
