…
  - If `x` is a data frame, an object of class `ir`, an object of class
    `hyperSpec` (from package 'hyperSpec'), or an object of class
    `Spectra` (from package 'ChemoSpec'), these are ignored.

## Value

An object of class `ir` with available metadata from original objects.

## Examples

``` r
# conversion from an ir object
ir::ir_sample_data |>
  ir_as_ir()
#> # A tibble: 58 × 7
#>    id_measurement id_sample sample_type sample_comment             klason_lignin
#>             <int> <chr>     <chr>       <chr>                      <units>      
#>  1              1 GN 11-389 needles     Abies Firma Momi fir       0.359944     
#>  2              2 GN 11-400 needles     Cupressocyparis leylandii… 0.339405     
#>  3              3 GN 11-407 needles     Juniperus chinensis Chine… 0.267552     
#>  4              4 GN 11-411 needles     Metasequoia glyptostroboi… 0.350016     
#>  5              5 GN 11-416 needles     Pinus strobus Torulosa     0.331100     
#>  6              6 GN 11-419 needles     Pseudolarix amabili Golde… 0.279360     
#>  7              7 GN 11-422 needles     Sequoia sempervirens Cali… 0.329672     
#>  8              8 GN 11-423 needles     Taxodium distichum Cascad… 0.356950     
#>  9              9 GN 11-428 needles     Thuja occidentalis Easter… 0.369360     
#> 10             10 GN 11-434 needles     Tsuga caroliniana Carolin… 0.289050     
#> # ℹ 48 more rows
#> # ℹ 2 more variables: holocellulose <units>, spectra <named list>
…
x_df <-
  x_ir |>
  ir_drop_spectra() |>
  dplyr::mutate(
    spectra = x_ir$spectra
  ) |>
  ir_as_ir()

# check that ir_as_ir preserves the input class
ir_sample_data |>
  structure(class = setdiff(class(ir_sample_data), "ir")) |>
  dplyr::group_by(sample_type) |>
  ir_as_ir()
#> # A tibble: 58 × 7
#> # Groups:   sample_type [8]
#>    id_measurement id_sample sample_type sample_comment             klason_lignin
#>  *          <int> <chr>     <chr>       <chr>                      <units>      
#>  1              1 GN 11-389 needles     Abies Firma Momi fir       0.359944     
#>  2              2 GN 11-400 needles     Cupressocyparis leylandii… 0.339405     
#>  3              3 GN 11-407 needles     Juniperus chinensis Chine… 0.267552     
#>  4              4 GN 11-411 needles     Metasequoia glyptostroboi… 0.350016     
#>  5              5 GN 11-416 needles     Pinus strobus Torulosa     0.331100     
#>  6              6 GN 11-419 needles     Pseudolarix amabili Golde… 0.279360     
#>  7              7 GN 11-422 needles     Sequoia sempervirens Cali… 0.329672     
#>  8              8 GN 11-423 needles     Taxodium distichum Cascad… 0.356950     
#>  9              9 GN 11-428 needles     Thuja occidentalis Easter… 0.369360     
#> 10             10 GN 11-434 needles     Tsuga caroliniana Carolin… 0.289050     
#> # ℹ 48 more rows
#> # ℹ 2 more variables: holocellulose <units>, spectra <named list>
…
