Mutating joins for an ir object — mutate-joins • ir
…
## left_join
set.seed(234)
dplyr::left_join(
  ir_sample_data,
  tibble::tibble(
    id_measurement = c(1:5, 101:105),
    nitrogen_content = rbeta(n = 10, 0.2, 0.1)
  ),
  by = "id_measurement"
)
#> # A tibble: 58 × 8
#>    id_measurement id_sample sample_type sample_comment             klason_lignin
#>  *          <int> <chr>     <chr>       <chr>                                [1]
#>  1              1 GN 11-389 needles     Abies Firma Momi fir               0.360
#>  2              2 GN 11-400 needles     Cupressocyparis leylandii…         0.339
#>  3              3 GN 11-407 needles     Juniperus chinensis Chine…         0.268
#>  4              4 GN 11-411 needles     Metasequoia glyptostroboi…         0.350
#>  5              5 GN 11-416 needles     Pinus strobus Torulosa             0.331
#>  6              6 GN 11-419 needles     Pseudolarix amabili Golde…         0.279
#>  7              7 GN 11-422 needles     Sequoia sempervirens Cali…         0.330
#>  8              8 GN 11-423 needles     Taxodium distichum Cascad…         0.357
#>  9              9 GN 11-428 needles     Thuja occidentalis Easter…         0.369
#> 10             10 GN 11-434 needles     Tsuga caroliniana Carolin…         0.289
#> # ℹ 48 more rows
#> # ℹ 3 more variables: holocellulose [1], spectra <named list>,
#> #   nitrogen_content <dbl>
…
## full_join
set.seed(234)
dplyr::full_join(
  ir_sample_data,
  tibble::tibble(
    id_measurement = c(1:5, 101:105),
    nitrogen_content = rbeta(n = 10, 0.2, 0.1)
  ),
  by = "id_measurement"
)
#> # A tibble: 63 × 8
#>    id_measurement id_sample sample_type sample_comment             klason_lignin
#>  *          <int> <chr>     <chr>       <chr>                                [1]
#>  1              1 GN 11-389 needles     Abies Firma Momi fir               0.360
#>  2              2 GN 11-400 needles     Cupressocyparis leylandii…         0.339
#>  3              3 GN 11-407 needles     Juniperus chinensis Chine…         0.268
#>  4              4 GN 11-411 needles     Metasequoia glyptostroboi…         0.350
#>  5              5 GN 11-416 needles     Pinus strobus Torulosa             0.331
#>  6              6 GN 11-419 needles     Pseudolarix amabili Golde…         0.279
#>  7              7 GN 11-422 needles     Sequoia sempervirens Cali…         0.330
#>  8              8 GN 11-423 needles     Taxodium distichum Cascad…         0.357
#>  9              9 GN 11-428 needles     Thuja occidentalis Easter…         0.369
#> 10             10 GN 11-434 needles     Tsuga caroliniana Carolin…         0.289
#> # ℹ 53 more rows
#> # ℹ 3 more variables: holocellulose [1], spectra <named list>,
#> #   nitrogen_content <dbl>
…
