Mutate an ir object by adding new or replacing existing columns — mutate • ir
…
    Examples

## mutate
dplyr::mutate(ir_sample_data, hkl = klason_lignin + holocellulose)
#> # A tibble: 58 × 8
#>    id_measurement id_sample sample_type sample_comment             klason_lignin
#>  *          <int> <chr>     <chr>       <chr>                                [1]
#>  1              1 GN 11-389 needles     Abies Firma Momi fir               0.360
#>  2              2 GN 11-400 needles     Cupressocyparis leylandii…         0.339
#>  3              3 GN 11-407 needles     Juniperus chinensis Chine…         0.268
#>  4              4 GN 11-411 needles     Metasequoia glyptostroboi…         0.350
#>  5              5 GN 11-416 needles     Pinus strobus Torulosa             0.331
#>  6              6 GN 11-419 needles     Pseudolarix amabili Golde…         0.279
#>  7              7 GN 11-422 needles     Sequoia sempervirens Cali…         0.330
#>  8              8 GN 11-423 needles     Taxodium distichum Cascad…         0.357
#>  9              9 GN 11-428 needles     Thuja occidentalis Easter…         0.369
#> 10             10 GN 11-434 needles     Tsuga caroliniana Carolin…         0.289
#> # ℹ 48 more rows
#> # ℹ 3 more variables: holocellulose [1], spectra <named list>, hkl [1]

## transmute
dplyr::transmute(ir_sample_data, hkl = klason_lignin + holocellulose)
#> # A tibble: 58 × 1
#>      hkl
#>  *   [1]
#>  1 0.668
#>  2 0.589
#>  3 0.604
#>  4 0.534
#>  5 0.640
#>  6 0.615
#>  7 0.570
#>  8 0.482
#>  9 0.621
#> 10 0.638
#> # ℹ 48 more rows
…
