Pivot an ir object from wide to long — pivot_wider.ir • ir
…
    Examples

## pivot_wider
ir_sample_data |>
  tidyr::pivot_longer(
    cols = dplyr::any_of(c("holocellulose", "klason_lignin"))
  ) |>
  tidyr::pivot_wider(names_from = "name", values_from = "value")
#> # A tibble: 58 × 7
#>    id_measurement id_sample sample_type sample_comment    spectra  holocellulose
#>             <int> <chr>     <chr>       <chr>             <named >           [1]
#>  1              1 GN 11-389 needles     Abies Firma Momi… <tibble>         0.308
#>  2              2 GN 11-400 needles     Cupressocyparis … <tibble>         0.250
#>  3              3 GN 11-407 needles     Juniperus chinen… <tibble>         0.336
#>  4              4 GN 11-411 needles     Metasequoia glyp… <tibble>         0.184
#>  5              5 GN 11-416 needles     Pinus strobus To… <tibble>         0.309
#>  6              6 GN 11-419 needles     Pseudolarix amab… <tibble>         0.335
#>  7              7 GN 11-422 needles     Sequoia sempervi… <tibble>         0.241
#>  8              8 GN 11-423 needles     Taxodium distich… <tibble>         0.125
#>  9              9 GN 11-428 needles     Thuja occidental… <tibble>         0.252
#> 10             10 GN 11-434 needles     Tsuga carolinian… <tibble>         0.349
#> # ℹ 48 more rows
#> # ℹ 1 more variable: klason_lignin [1]
…
