Pivot an ir object from wide to long — pivot_longer.ir • ir
…
    Examples

## pivot_longer
ir_sample_data |>
  tidyr::pivot_longer(
    cols = dplyr::any_of(c("holocellulose", "klason_lignin"))
  )
#> # A tibble: 116 × 7
#>    id_measurement id_sample sample_type sample_comment      spectra  name  value
#>  *          <int> <chr>     <chr>       <chr>               <named > <chr>   [1]
#>  1              1 GN 11-389 needles     Abies Firma Momi f… <tibble> holo… 0.308
#>  2              1 GN 11-389 needles     Abies Firma Momi f… <tibble> klas… 0.360
#>  3              2 GN 11-400 needles     Cupressocyparis le… <tibble> holo… 0.250
#>  4              2 GN 11-400 needles     Cupressocyparis le… <tibble> klas… 0.339
#>  5              3 GN 11-407 needles     Juniperus chinensi… <tibble> holo… 0.336
#>  6              3 GN 11-407 needles     Juniperus chinensi… <tibble> klas… 0.268
#>  7              4 GN 11-411 needles     Metasequoia glypto… <tibble> holo… 0.184
#>  8              4 GN 11-411 needles     Metasequoia glypto… <tibble> klas… 0.350
#>  9              5 GN 11-416 needles     Pinus strobus Toru… <tibble> holo… 0.309
#> 10              5 GN 11-416 needles     Pinus strobus Toru… <tibble> klas… 0.331
#> # ℹ 106 more rows
…
