…
## Examples

``` r
## separate
ir_sample_data |>
  tidyr::separate(
    col = "id_sample",  c("a", "b", "c")
  )
#> # A tibble: 58 × 9
#>    id_measurement a     b     c     sample_type sample_comment     klason_lignin
#>  *          <int> <chr> <chr> <chr> <chr>       <chr>                        [1]
#>  1              1 GN    11    389   needles     Abies Firma Momi …         0.360
#>  2              2 GN    11    400   needles     Cupressocyparis l…         0.339
#>  3              3 GN    11    407   needles     Juniperus chinens…         0.268
#>  4              4 GN    11    411   needles     Metasequoia glypt…         0.350
#>  5              5 GN    11    416   needles     Pinus strobus Tor…         0.331
#>  6              6 GN    11    419   needles     Pseudolarix amabi…         0.279
#>  7              7 GN    11    422   needles     Sequoia sempervir…         0.330
#>  8              8 GN    11    423   needles     Taxodium distichu…         0.357
#>  9              9 GN    11    428   needles     Thuja occidentali…         0.369
#> 10             10 GN    11    434   needles     Tsuga caroliniana…         0.289
#> # ℹ 48 more rows
#> # ℹ 2 more variables: holocellulose [1], spectra <named list>
…
