Summarize each group in a ir object to fewer rows — summarize • ir
…
    Examples

## summarize

# select in each sample_type groups the first spectrum
ir_sample_data %>%
  dplyr::group_by(sample_type) %>%
  dplyr::summarize(spectra = spectra[[1]])
#> `summarise()` has grouped output by 'sample_type'. You can override using the
#> `.groups` argument.
#> # A tibble: 26,808 × 2
#> # Groups:   sample_type [8]
#>    sample_type spectra$x        $y
#>  * <chr>           <int>     <dbl>
#>  1 hardwood         4000 0.000193 
#>  2 hardwood         3999 0.000214 
#>  3 hardwood         3998 0.000179 
#>  4 hardwood         3997 0.000106 
#>  5 hardwood         3996 0.0000386
#>  6 hardwood         3995 0.0000354
#>  7 hardwood         3994 0.000102 
#>  8 hardwood         3993 0.000210 
#>  9 hardwood         3992 0.000294 
#> 10 hardwood         3991 0.000312 
#> # … with 26,798 more rows
…
