Unite multiple columns in an ir object into one by pasting strings together — unite.ir • ir
…
    Examples

## unite
ir_sample_data |>
  tidyr::separate(
    "id_sample",  c("a", "b", "c")
  ) |>
  tidyr::unite(id_sample, a, b, c)
#> # A tibble: 58 × 7
#>    id_measurement col     sample_type sample_comment klason_lignin holocellulose
#>  *          <int> <chr>   <chr>       <chr>                    [1]           [1]
#>  1              1 GN_11_… needles     Abies Firma M…         0.360         0.308
#>  2              2 GN_11_… needles     Cupressocypar…         0.339         0.250
#>  3              3 GN_11_… needles     Juniperus chi…         0.268         0.336
#>  4              4 GN_11_… needles     Metasequoia g…         0.350         0.184
#>  5              5 GN_11_… needles     Pinus strobus…         0.331         0.309
#>  6              6 GN_11_… needles     Pseudolarix a…         0.279         0.335
#>  7              7 GN_11_… needles     Sequoia sempe…         0.330         0.241
#>  8              8 GN_11_… needles     Taxodium dist…         0.357         0.125
#>  9              9 GN_11_… needles     Thuja occiden…         0.369         0.252
#> 10             10 GN_11_… needles     Tsuga carolin…         0.289         0.349
#> # ℹ 48 more rows
#> # ℹ 1 more variable: spectra <named list>
…
